First_Forecast_Project.knit
…
## <Training/Testing/Total>
## <4005/1004/5009>

#To actually get the training and testing data we need to apply the training() and testing() functions to the split.

train_data <- training(split)
test_data <- testing(split)

#You can see that train_data is a data frame that we can work with.
train_data

## # A tibble: 4,005 x 9
##    datetime   site_id temperature air_temperature eastward_wind northward_wind
##    <date>     <chr>         <dbl>           <dbl>         <dbl>          <dbl>
##  1 2021-01-01 BARC           17.2           22.3          2.71         -1.35  
##  2 2021-01-02 BARC           18.5           21.6          2.50          0.550 
##  3 2021-01-03 BARC           19.0           19.9          0.756         1.95  
##  4 2021-01-04 BARC           17.7           12.2         -1.63          1.24  
##  5 2021-01-06 BARC           16.3           12.1         -1.46          0.0418
##  6 2021-01-10 BARC           15.0            6.87        -1.32          0.199 
##  7 2021-01-11 BARC           15.0           12.8          0.406        -0.788 
##  8 2021-01-13 BARC           15.1           10.2         -0.988         0.283 
##  9 2021-01-15 BARC           14.9           12.6          2.40          1.10  
## 10 2021-01-17 BARC           14.6            8.87        -0.269         1.29  
## # i 3,995 more rows
## # i 3 more variables: surface_downwelling_shortwave_flux_in_air <dbl>,
## #   windspeed <dbl>, doy <dbl>
…
## i Creating pre-processing data to finalize unknown parameter: mtry

wflow_resample_fit %>% 
  collect_metrics() |> 
  arrange(mean)

## # A tibble: 25 x 8
##     mtry min_n .metric .estimator  mean     n std_err .config              
##    <int> <int> <chr>   <chr>      <dbl> <int>   <dbl> <chr>                
##  1     3     4 rmse    standard    1.28    10  0.0295 Preprocessor1_Model19
##  2     2     3 rmse    standard    1.29    10  0.0267 Preprocessor1_Model01
##  3     4     6 rmse    standard    1.32    10  0.0357 Preprocessor1_Model24
##  4     4     8 rmse    standard    1.33    10  0.0347 Preprocessor1_Model09
##  5     2    11 rmse    standard    1.36    10  0.0259 Preprocessor1_Model25
##  6     4    12 rmse    standard    1.37    10  0.0353 Preprocessor1_Model20
##  7     3    14 rmse    standard    1.37    10  0.0292 Preprocessor1_Model06
##  8     2    14 rmse    standard    1.39    10  0.0255 Preprocessor1_Model21
##  9     4    16 rmse    standard    1.40    10  0.0327 Preprocessor1_Model04
## 10     2    17 rmse    standard    1.42    10  0.0256 Preprocessor1_Model12
## # i 15 more rows
…
#Step 5: Predict Test Data

#Now we will predict the testing data using the model that was fit to the training data.
test_data <- test_data |>
  na.omit()
predictions <- predict(fit, new_data = test_data)

predictions #single column with predictions

## # A tibble: 1,004 x 1
##    .pred
##    <dbl>
##  1  16.7
##  2  16.0
##  3  15.6
##  4  14.9
##  5  15.6
##  6  15.1
##  7  15.3
##  8  16.8
##  9  14.5
## 10  15.2
## # i 994 more rows

#We need to combine the .pred column with the testing data using the bind_cols function
pred_test <- bind_cols(test_data, predictions)
pred_test

## # A tibble: 1,004 x 10
##    datetime   site_id temperature air_temperature eastward_wind northward_wind
##    <date>     <chr>         <dbl>           <dbl>         <dbl>          <dbl>
##  1 2021-01-05 BARC           16.7           12.3        -0.688           2.12 
##  2 2021-01-07 BARC           16.1           14.2         0.0914         -1.54 
##  3 2021-01-08 BARC           16.1           14.1         0.0501          2.46 
##  4 2021-01-09 BARC           15.6            8.14       -1.34            2.35 
##  5 2021-01-12 BARC           15.4           15.9         0.358           1.30 
##  6 2021-01-14 BARC           14.9            9.70       -0.373           1.71 
##  7 2021-01-16 BARC           14.8           10.9        -0.0152          3.08 
##  8 2021-01-25 BARC           16.3           19.6         1.51           -0.438
##  9 2021-02-02 BARC           15.4            6.83       -2.12            4.07 
## 10 2021-02-08 BARC           15.5           14.1        -1.61           -1.87 
## # i 994 more rows
## # i 4 more variables: surface_downwelling_shortwave_flux_in_air <dbl>,
## #   windspeed <dbl>, doy <dbl>, .pred <dbl>
…
#Step 7: Deploy model

#same as deterministic forecast
targets_future <- noaa_future_daily |> 
  dplyr::mutate(temperature = NA,
         doy = yday(datetime)) |> 
  filter(parameter == 1) |> 
  select(-parameter)

#You will notice that the temperature is all NA because you dont know what the temperature is of the site.

targets_future

## # A tibble: 238 x 9
##    datetime   site_id air_temperature northward_wind eastward_wind
##    <date>     <chr>             <dbl>          <dbl>         <dbl>
##  1 2024-05-03 BARC               24.3         -1.74          0.325
##  2 2024-05-04 BARC               25.1         -1.41          0.824
##  3 2024-05-05 BARC               24.1         -0.812         1.51 
##  4 2024-05-06 BARC               23.6         -1.85          0.701
##  5 2024-05-07 BARC               24.6         -1.99          0.879
##  6 2024-05-08 BARC               26.5         -1.11          0.911
##  7 2024-05-09 BARC               28.0          0.816        -0.397
##  8 2024-05-10 BARC               27.4          2.15         -0.790
##  9 2024-05-11 BARC               28.2          2.00          0.235
## 10 2024-05-12 BARC               28.6          3.35          1.62 
## # i 228 more rows
## # i 4 more variables: surface_downwelling_shortwave_flux_in_air <dbl>,
## #   windspeed <dbl>, temperature <lgl>, doy <dbl>
…
